DT.vcd
$date
	Sat Aug 08 22:17:52 2020
$end
$version
	Icarus Verilog
$end
$timescale
	10ps
$end
$scope module testfixture $end
$var wire 1 ! sti_rd $end
$var wire 16 " sti_di [15:0] $end
$var wire 10 # sti_addr [9:0] $end
$var wire 1 $ res_wr $end
$var wire 1 % res_rd $end
$var wire 8 & res_do [7:0] $end
$var wire 8 ' res_di [7:0] $end
$var wire 14 ( res_addr [13:0] $end
$var wire 1 ) done $end
$var reg 1 * bcpass_chk $end
$var reg 1 + clk $end
$var reg 8 , exp_pat [7:0] $end
$var reg 8 - rel_pat [7:0] $end
$var reg 1 . reset $end
$var integer 32 / bc_err [31:0] $end
$var integer 32 0 i [31:0] $end
$scope module u_dut $end
$var wire 1 + clk $end
$var wire 1 . reset $end
$var wire 16 1 sti_di [15:0] $end
$var wire 8 2 res_di [7:0] $end
$var reg 8 3 cmpTemp0 [7:0] $end
$var reg 8 4 cmpTemp1 [7:0] $end
$var reg 5 5 counter [4:0] $end
$var reg 4 6 current_state [3:0] $end
$var reg 1 ) done $end
$var reg 4 7 next_state [3:0] $end
$var reg 14 8 res_addr [13:0] $end
$var reg 8 9 res_do [7:0] $end
$var reg 1 % res_rd $end
$var reg 1 $ res_wr $end
$var reg 8 : stiTemp [7:0] $end
$var reg 10 ; sti_addr [9:0] $end
$var reg 1 ! sti_rd $end
$var reg 7 < x [6:0] $end
$var reg 7 = y [6:0] $end
$upscope $end
$scope module u_res_RAM $end
$var wire 1 + clk $end
$var wire 14 > res_addr [13:0] $end
$var wire 8 ? res_datain [7:0] $end
$var wire 1 % res_rd $end
$var wire 1 $ res_wr $end
$var reg 8 @ res_dataout [7:0] $end
$var integer 32 A i [31:0] $end
$upscope $end
$scope module u_sti_ROM $end
$var wire 1 + clk $end
$var wire 1 . reset $end
$var wire 10 B sti_addr [9:0] $end
$var wire 1 ! sti_rd $end
$var reg 16 C sti_data [15:0] $end
$upscope $end
$upscope $end
$enddefinitions $end
#0
$dumpvars
bx C
bx B
b100000000000000 A
bx @
bx ?
bx >
bx =
bx <
bx ;
bx :
bx 9
bx 8
bx 7
bx 6
bx 5
bx 4
bx 3
bx 2
bx 1
bx 0
bx /
x.
bx -
bx ,
0+
0*
x)
bx (
bx '
bx &
x%
x$
bx #
bx "
x!
$end
#100
1.
#500
0!
0$
0%
1+
#1000
0+
#1100
b1010 7
b0 &
b0 9
b0 ?
b0 (
b0 8
b0 >
b0 #
b0 ;
b0 B
0)
b0 6
b0 5
b0 =
b0 <
0.
#1500
1+
#2000
0+
#2500
1+
#3000
0+
#3500
1+
#4000
0+
#4500
1+
#5000
0+
#5100
1.
#5500
b1011 7
b1010 6
1!
1+
#6000
b0 "
b0 1
b0 C
0+
#6500
0!
b1011 6
1+
#7000
0+
#7500
b1 5
b11111111111111 (
b11111111111111 8
b11111111111111 >
b0 :
1+
#8000
0+
#8500
b0 (
b0 8
b0 >
1$
b10 5
1+
#9000
0+
#9500
b11 5
b1 (
b1 8
b1 >
1+
#10000
0+
#10500
b10 (
b10 8
b10 >
b100 5
1+
#11000
0+
#11500
b101 5
b11 (
b11 8
b11 >
1+
#12000
0+
#12500
b100 (
b100 8
b100 >
b110 5
1+
#13000
0+
#13500
b111 5
b101 (
b101 8
b101 >
1+
#14000
0+
#14500
b110 (
b110 8
b110 >
b1000 5
1+
#15000
0+
#15500
b1001 5
b111 (
b111 8
b111 >
1+
#16000
0+
#16500
b0x &
b0x 9
b0x ?
b1000 (
b1000 8
b1000 >
b1010 5
1+
#17000
0+
#17500
b1011 5
b1001 (
b1001 8
b1001 >
1+
#18000
0+
#18500
b1010 (
b1010 8
b1010 >
b1100 5
1+
#19000
0+
#19500
b1101 5
b1011 (
b1011 8
b1011 >
1+
#20000
0+
#20500
b1100 (
b1100 8
b1100 >
b1110 5
1+
#21000
0+
#21500
b1111 5
b1101 (
b1101 8
b1101 >
1+
#22000
0+
#22500
b1010 7
b1110 (
b1110 8
b1110 >
b10000 5
1+
#23000
0+
#23500
b1011 7
b1 <
b0 5
b1010 6
1!
b1111 (
b1111 8
b1111 >
1+
#24000
0+
#24500
0$
0!
b1011 6
1+
#25000
0+
#25500
b1 5
1+
#26000
0+
#26500
b0 &
b0 9
b0 ?
b10000 (
b10000 8
b10000 >
1$
b10 5
1+
#27000
0+
#27500
b11 5
b10001 (
b10001 8
b10001 >
1+
#28000
0+
#28500
b10010 (
b10010 8
b10010 >
b100 5
1+
#29000
0+
#29500
b101 5
b10011 (
b10011 8
b10011 >
1+
#30000
0+
#30500
b10100 (
b10100 8
b10100 >
b110 5
1+
#31000
0+
#31500
b111 5
b10101 (
b10101 8
b10101 >
1+
#32000
0+
#32500
b10110 (
b10110 8
b10110 >
b1000 5
1+
#33000
0+
#33500
b1001 5
b10111 (
b10111 8
b10111 >
1+
#34000
0+
#34500
b0x &
b0x 9
b0x ?
b11000 (
b11000 8
b11000 >
b1010 5
1+
#35000
0+
#35500
b1011 5
b11001 (
b11001 8
b11001 >
1+
#36000
0+
#36500
b11010 (
b11010 8
b11010 >
b1100 5
1+
#37000
0+
#37500
b1101 5
b11011 (
b11011 8
b11011 >
1+
#38000
0+
#38500
b11100 (
b11100 8
b11100 >
b1110 5
1+
#39000
0+
#39500
b1111 5
b11101 (
b11101 8
b11101 >
1+
#40000
0+
#40500
b1010 7
b11110 (
b11110 8
b11110 >
b10000 5
1+
#41000
0+
#41500
b1011 7
b10 <
b0 5
b1010 6
1!
b1 #
b1 ;
b1 B
b11111 (
b11111 8
b11111 >
1+
#42000
0+
#42500
0$
0!
b1011 6
1+
#43000
0+
#43500
b1 5
1+
#44000
0+
#44500
b0 &
b0 9
b0 ?
b100000 (
b100000 8
b100000 >
1$
b10 5
1+
#45000
0+
#45500
b11 5
b100001 (
b100001 8
b100001 >
1+
#46000
0+
#46500
b100010 (
b100010 8
b100010 >
b100 5
1+
#47000
0+
#47500
b101 5
b100011 (
b100011 8
b100011 >
1+
#48000
0+
#48500
b100100 (
b100100 8
b100100 >
b110 5
1+
#49000
0+
#49500
b111 5
b100101 (
b100101 8
b100101 >
1+
#50000
0+
#50500
b100110 (
b100110 8
b100110 >
b1000 5
1+
#51000
0+
#51500
b1001 5
b100111 (
b100111 8
b100111 >
1+
#52000
0+
#52500
b0x &
b0x 9
b0x ?
b101000 (
b101000 8
b101000 >
b1010 5
1+
#53000
0+
#53500
b1011 5
b101001 (
b101001 8
b101001 >
1+
#54000
0+
#54500
b101010 (
b101010 8
b101010 >
b1100 5
1+
#55000
0+
#55500
b1101 5
b101011 (
b101011 8
b101011 >
1+
#56000
0+
#56500
b101100 (
b101100 8
b101100 >
b1110 5
1+
#57000
0+
#57500
b1111 5
b101101 (
b101101 8
b101101 >
1+
#58000
0+
#58500
b1010 7
b101110 (
b101110 8
b101110 >
b10000 5
1+
#59000
0+
#59500
b1011 7
b11 <
b0 5
b1010 6
1!
b10 #
b10 ;
b10 B
b101111 (
b101111 8
b101111 >
1+
#60000
0+
#60500
0$
0!
b1011 6
1+
#61000
0+
#61500
b1 5
1+
#62000
0+
#62500
b0 &
b0 9
b0 ?
b110000 (
b110000 8
b110000 >
1$
b10 5
1+
#63000
0+
#63500
b11 5
b110001 (
b110001 8
b110001 >
1+
#64000
0+
#64500
b110010 (
b110010 8
b110010 >
b100 5
1+
#65000
0+
#65500
b101 5
b110011 (
b110011 8
b110011 >
1+
#66000
0+
#66500
b110100 (
b110100 8
b110100 >
b110 5
1+
#67000
0+
#67500
b111 5
b110101 (
b110101 8
b110101 >
1+
#68000
0+
#68500
b110110 (
b110110 8
b110110 >
b1000 5
1+
#69000
0+
#69500
b1001 5
b110111 (
b110111 8
b110111 >
1+
#70000
0+
#70500
b0x &
b0x 9
b0x ?
b111000 (
b111000 8
b111000 >
b1010 5
1+
#71000
0+
#71500
b1011 5
b111001 (
b111001 8
b111001 >
1+
#72000
0+
#72500
b111010 (
b111010 8
b111010 >
b1100 5
1+
#73000
0+
#73500
b1101 5
b111011 (
b111011 8
b111011 >
1+
#74000
0+
#74500
b111100 (
b111100 8
b111100 >
b1110 5
1+
#75000
0+
#75500
b1111 5
b111101 (
b111101 8
b111101 >
1+
#76000
0+
#76500
b1010 7
b111110 (
b111110 8
b111110 >
b10000 5
1+
#77000
0+
#77500
b1011 7
b100 <
b0 5
b1010 6
1!
b11 #
b11 ;
b11 B
b111111 (
b111111 8
b111111 >
1+
#78000
0+
#78500
0$
0!
b1011 6
1+
#79000
0+
#79500
b1 5
1+
#80000
0+
#80500
b0 &
b0 9
b0 ?
b1000000 (
b1000000 8
b1000000 >
1$
b10 5
1+
#81000
0+
#81500
b11 5
b1000001 (
b1000001 8
b1000001 >
1+
#82000
0+
#82500
b1000010 (
b1000010 8
b1000010 >
b100 5
1+
#83000
0+
#83500
b101 5
b1000011 (
b1000011 8
b1000011 >
1+
#84000
0+
#84500
b1000100 (
b1000100 8
b1000100 >
b110 5
1+
#85000
0+
#85500
b111 5
b1000101 (
b1000101 8
b1000101 >
1+
#86000
0+
#86500
b1000110 (
b1000110 8
b1000110 >
b1000 5
1+
#87000
0+
#87500
b1001 5
b1000111 (
b1000111 8
b1000111 >
1+
#88000
0+
#88500
b0x &
b0x 9
b0x ?
b1001000 (
b1001000 8
b1001000 >
b1010 5
1+
#89000
0+
#89500
b1011 5
b1001001 (
b1001001 8
b1001001 >
1+
#90000
0+
#90500
b1001010 (
b1001010 8
b1001010 >
b1100 5
1+
#91000
0+
#91500
b1101 5
b1001011 (
b1001011 8
b1001011 >
1+
#92000
0+
#92500
b1001100 (
b1001100 8
b1001100 >
b1110 5
1+
#93000
0+
#93500
b1111 5
b1001101 (
b1001101 8
b1001101 >
1+
#94000
0+
#94500
b1010 7
b1001110 (
b1001110 8
b1001110 >
b10000 5
1+
#95000
0+
#95500
b1011 7
b101 <
b0 5
b1010 6
1!
b100 #
b100 ;
b100 B
b1001111 (
b1001111 8
b1001111 >
1+
#96000
0+
#96500
0$
0!
b1011 6
1+
#97000
0+
#97500
b1 5
1+
#98000
0+
#98500
b0 &
b0 9
b0 ?
b1010000 (
b1010000 8
b1010000 >
1$
b10 5
1+
#99000
0+
#99500
b11 5
b1010001 (
b1010001 8
b1010001 >
1+
#100000
0+
#100500
b1010010 (
b1010010 8
b1010010 >
b100 5
1+
#101000
0+
#101500
b101 5
b1010011 (
b1010011 8
b1010011 >
1+
#102000
0+
#102500
b1010100 (
b1010100 8
b1010100 >
b110 5
1+
#103000
0+
#103500
b111 5
b1010101 (
b1010101 8
b1010101 >
1+
#104000
0+
#104500
b1010110 (
b1010110 8
b1010110 >
b1000 5
1+
#105000
0+
#105500
b1001 5
b1010111 (
b1010111 8
b1010111 >
1+
#106000
0+
#106500
b0x &
b0x 9
b0x ?
b1011000 (
b1011000 8
b1011000 >
b1010 5
1+
#107000
0+
#107500
b1011 5
b1011001 (
b1011001 8
b1011001 >
1+
#108000
0+
#108500
b1011010 (
b1011010 8
b1011010 >
b1100 5
1+
#109000
0+
#109500
b1101 5
b1011011 (
b1011011 8
b1011011 >
1+
#110000
0+
#110500
b1011100 (
b1011100 8
b1011100 >
b1110 5
1+
#111000
0+
#111500
b1111 5
b1011101 (
b1011101 8
b1011101 >
1+
#112000
0+
#112500
b1010 7
b1011110 (
b1011110 8
b1011110 >
b10000 5
1+
#113000
0+
#113500
b1011 7
b110 <
b0 5
b1010 6
1!
b101 #
b101 ;
b101 B
b1011111 (
b1011111 8
b1011111 >
1+
#114000
0+
#114500
0$
0!
b1011 6
1+
#115000
0+
#115500
b1 5
1+
#116000
0+
#116500
b0 &
b0 9
b0 ?
b1100000 (
b1100000 8
b1100000 >
1$
b10 5
1+
#117000
0+
#117500
b11 5
b1100001 (
b1100001 8
b1100001 >
1+
#118000
0+
#118500
b1100010 (
b1100010 8
b1100010 >
b100 5
1+
#119000
0+
#119500
b101 5
b1100011 (
b1100011 8
b1100011 >
1+
#120000
0+
#120500
b1100100 (
b1100100 8
b1100100 >
b110 5
1+
#121000
0+
#121500
b111 5
b1100101 (
b1100101 8
b1100101 >
1+
#122000
0+
#122500
b1100110 (
b1100110 8
b1100110 >
b1000 5
1+
#123000
0+
#123500
b1001 5
b1100111 (
b1100111 8
b1100111 >
1+
#124000
0+
#124500
b0x &
b0x 9
b0x ?
b1101000 (
b1101000 8
b1101000 >
b1010 5
1+
#125000
0+
#125500
b1011 5
b1101001 (
b1101001 8
b1101001 >
1+
#126000
0+
#126500
b1101010 (
b1101010 8
b1101010 >
b1100 5
1+
#127000
0+
#127500
b1101 5
b1101011 (
b1101011 8
b1101011 >
1+
#128000
0+
#128500
b1101100 (
b1101100 8
b1101100 >
b1110 5
1+
#129000
0+
#129500
b1111 5
b1101101 (
b1101101 8
b1101101 >
1+
#130000
0+
#130500
b1010 7
b1101110 (
b1101110 8
b1101110 >
b10000 5
1+
#131000
0+
#131500
b1011 7
b111 <
b0 5
b1010 6
1!
b110 #
b110 ;
b110 B
b1101111 (
b1101111 8
b1101111 >
1+
#132000
0+
#132500
0$
0!
b1011 6
1+
#133000
0+
#133500
b1 5
1+
#134000
0+
#134500
b0 &
b0 9
b0 ?
b1110000 (
b1110000 8
b1110000 >
1$
b10 5
1+
#135000
0+
#135500
b11 5
b1110001 (
b1110001 8
b1110001 >
1+
#136000
0+
#136500
b1110010 (
b1110010 8
b1110010 >
b100 5
1+
#137000
0+
#137500
b101 5
b1110011 (
b1110011 8
b1110011 >
1+
#138000
0+
#138500
b1110100 (
b1110100 8
b1110100 >
b110 5
1+
#139000
0+
#139500
b111 5
b1110101 (
b1110101 8
b1110101 >
1+
#140000
0+
#140500
b1110110 (
b1110110 8
b1110110 >
b1000 5
1+
#141000
0+
#141500
b1001 5
b1110111 (
b1110111 8
b1110111 >
1+
#142000
0+
#142500
b0x &
b0x 9
b0x ?
b1111000 (
b1111000 8
b1111000 >
b1010 5
1+
#143000
0+
#143500
b1011 5
b1111001 (
b1111001 8
b1111001 >
1+
#144000
0+
#144500
b1111010 (
b1111010 8
b1111010 >
b1100 5
1+
#145000
0+
#145500
b1101 5
b1111011 (
b1111011 8
b1111011 >
1+
#146000
0+
#146500
b1111100 (
b1111100 8
b1111100 >
b1110 5
1+
#147000
0+
#147500
b1111 5
b1111101 (
b1111101 8
b1111101 >
1+
#148000
0+
#148500
b1010 7
b1111110 (
b1111110 8
b1111110 >
b10000 5
1+
#149000
0+
#149500
b1011 7
b0 <
b1 =
b0 5
b1010 6
1!
b111 #
b111 ;
b111 B
b1111111 (
b1111111 8
b1111111 >
1+
#150000
0+
#150500
0$
0!
b1011 6
1+
#151000
0+
#151500
b1 5
1+
#152000
0+
#152500
b0 &
b0 9
b0 ?
b10000000 (
b10000000 8
b10000000 >
1$
b10 5
1+
#153000
0+
#153500
b11 5
b10000001 (
b10000001 8
b10000001 >
1+
#154000
0+
#154500
b10000010 (
b10000010 8
b10000010 >
b100 5
1+
#155000
0+
#155500
b101 5
b10000011 (
b10000011 8
b10000011 >
1+
#156000
0+
#156500
b10000100 (
b10000100 8
b10000100 >
b110 5
1+
#157000
0+
#157500
b111 5
b10000101 (
b10000101 8
b10000101 >
1+
#158000
0+
#158500
b10000110 (
b10000110 8
b10000110 >
b1000 5
1+
#159000
0+
#159500
b1001 5
b10000111 (
b10000111 8
b10000111 >
1+
#160000
0+
#160500
b0x &
b0x 9
b0x ?
b10001000 (
b10001000 8
b10001000 >
b1010 5
1+
#161000
0+
#161500
b1011 5
b10001001 (
b10001001 8
b10001001 >
1+
#162000
0+
#162500
b10001010 (
b10001010 8
b10001010 >
b1100 5
1+
#163000
0+
#163500
b1101 5
b10001011 (
b10001011 8
b10001011 >
1+
#164000
0+
#164500
b10001100 (
b10001100 8
b10001100 >
b1110 5
1+
#165000
0+
#165500
b1111 5
b10001101 (
b10001101 8
b10001101 >
1+
#166000
0+
#166500
b1010 7
b10001110 (
b10001110 8
b10001110 >
b10000 5
1+
#167000
0+
#167500
b1011 7
b1 <
b0 5
b1010 6
1!
b1000 #
b1000 ;
b1000 B
b10001111 (
b10001111 8
b10001111 >
1+
#168000
0+
#168500
0$
0!
b1011 6
1+
#169000
0+
#169500
b1 5
1+
#170000
0+
#170500
b0 &
b0 9
b0 ?
b10010000 (
b10010000 8
b10010000 >
1$
b10 5
1+
#171000
0+
#171500
b11 5
b10010001 (
b10010001 8
b10010001 >
1+
#172000
0+
#172500
b10010010 (
b10010010 8
b10010010 >
b100 5
1+
#173000
0+
#173500
b101 5
b10010011 (
b10010011 8
b10010011 >
1+
#174000
0+
#174500
b10010100 (
b10010100 8
b10010100 >
b110 5
1+
#175000
0+
#175500
b111 5
b10010101 (
b10010101 8
b10010101 >
1+
#176000
0+
#176500
b10010110 (
b10010110 8
b10010110 >
b1000 5
1+
#177000
0+
#177500
b1001 5
b10010111 (
b10010111 8
b10010111 >
1+
#178000
0+
#178500
b0x &
b0x 9
b0x ?
b10011000 (
b10011000 8
b10011000 >
b1010 5
1+
#179000
0+
#179500
b1011 5
b10011001 (
b10011001 8
b10011001 >
1+
#180000
0+
#180500
b10011010 (
b10011010 8
b10011010 >
b1100 5
1+
#181000
0+
#181500
b1101 5
b10011011 (
b10011011 8
b10011011 >
1+
#182000
0+
#182500
b10011100 (
b10011100 8
b10011100 >
b1110 5
1+
#183000
0+
#183500
b1111 5
b10011101 (
b10011101 8
b10011101 >
1+
#184000
0+
#184500
b1010 7
b10011110 (
b10011110 8
b10011110 >
b10000 5
1+
#185000
0+
#185500
b1011 7
b10 <
b0 5
b1010 6
1!
b1001 #
b1001 ;
b1001 B
b10011111 (
b10011111 8
b10011111 >
1+
#186000
0+
#186500
0$
0!
b1011 6
1+
#187000
0+
#187500
b1 5
1+
#188000
0+
#188500
b0 &
b0 9
b0 ?
b10100000 (
b10100000 8
b10100000 >
1$
b10 5
1+
#189000
0+
#189500
b11 5
b10100001 (
b10100001 8
b10100001 >
1+
#190000
0+
#190500
b10100010 (
b10100010 8
b10100010 >
b100 5
1+
#191000
0+
#191500
b101 5
b10100011 (
b10100011 8
b10100011 >
1+
#192000
0+
#192500
b10100100 (
b10100100 8
b10100100 >
b110 5
1+
#193000
0+
#193500
b111 5
b10100101 (
b10100101 8
b10100101 >
1+
#194000
0+
#194500
b10100110 (
b10100110 8
b10100110 >
b1000 5
1+
#195000
0+
#195500
b1001 5
b10100111 (
b10100111 8
b10100111 >
1+
#196000
0+
#196500
b0x &
b0x 9
b0x ?
b10101000 (
b10101000 8
b10101000 >
b1010 5
1+
#197000
0+
#197500
b1011 5
b10101001 (
b10101001 8
b10101001 >
1+
#198000
0+
#198500
b10101010 (
b10101010 8
b10101010 >
b1100 5
1+
#199000
0+
#199500
b1101 5
b10101011 (
b10101011 8
b10101011 >
1+
#200000
0+
#200500
b10101100 (
b10101100 8
b10101100 >
b1110 5
1+
#201000
0+
#201500
b1111 5
b10101101 (
b10101101 8
b10101101 >
1+
#202000
0+
#202500
b1010 7
b10101110 (
b10101110 8
b10101110 >
b10000 5
1+
#203000
0+
#203500
b1011 7
b11 <
b0 5
b1010 6
1!
b1010 #
b1010 ;
b1010 B
b10101111 (
b10101111 8
b10101111 >
1+
#204000
0+
#204500
0$
0!
b1011 6
1+
#205000
0+
#205500
b1 5
1+
#206000
0+
#206500
b0 &
b0 9
b0 ?
b10110000 (
b10110000 8
b10110000 >
1$
b10 5
1+
#207000
0+
#207500
b11 5
b10110001 (
b10110001 8
b10110001 >
1+
#208000
0+
#208500
b10110010 (
b10110010 8
b10110010 >
b100 5
1+
#209000
0+
#209500
b101 5
b10110011 (
b10110011 8
b10110011 >
1+
#210000
0+
#210500
b10110100 (
b10110100 8
b10110100 >
b110 5
1+
#211000
0+
#211500
b111 5
b10110101 (
b10110101 8
b10110101 >
1+
#212000
0+
#212500
b10110110 (
b10110110 8
b10110110 >
b1000 5
1+
#213000
0+
#213500
b1001 5
b10110111 (
b10110111 8
b10110111 >
1+
#214000
0+
#214500
b0x &
b0x 9
b0x ?
b10111000 (
b10111000 8
b10111000 >
b1010 5
1+
#215000
0+
#215500
b1011 5
b10111001 (
b10111001 8
b10111001 >
1+
#216000
0+
#216500
b10111010 (
b10111010 8
b10111010 >
b1100 5
1+
#217000
0+
#217500
b1101 5
b10111011 (
b10111011 8
b10111011 >
1+
#218000
0+
#218500
b10111100 (
b10111100 8
b10111100 >
b1110 5
1+
#219000
0+
#219500
b1111 5
b10111101 (
b10111101 8
b10111101 >
1+
#220000
0+
#220500
b1010 7
b10111110 (
b10111110 8
b10111110 >
b10000 5
1+
#221000
0+
#221500
b1011 7
b100 <
b0 5
b1010 6
1!
b1011 #
b1011 ;
b1011 B
b10111111 (
b10111111 8
b10111111 >
1+
#222000
0+
#222500
0$
0!
b1011 6
1+
#223000
0+
#223500
b1 5
1+
#224000
0+
#224500
b0 &
b0 9
b0 ?
b11000000 (
b11000000 8
b11000000 >
1$
b10 5
1+
#225000
0+
#225500
b11 5
b11000001 (
b11000001 8
b11000001 >
1+
#226000
0+
#226500
b11000010 (
b11000010 8
b11000010 >
b100 5
1+
#227000
0+
#227500
b101 5
b11000011 (
b11000011 8
b11000011 >
1+
#228000
0+
#228500
b11000100 (
b11000100 8
b11000100 >
b110 5
1+
#229000
0+
#229500
b111 5
b11000101 (
b11000101 8
b11000101 >
1+
#230000
0+
#230500
b11000110 (
b11000110 8
b11000110 >
b1000 5
1+
#231000
0+
#231500
b1001 5
b11000111 (
b11000111 8
b11000111 >
1+
#232000
0+
#232500
b0x &
b0x 9
b0x ?
b11001000 (
b11001000 8
b11001000 >
b1010 5
1+
#233000
0+
#233500
b1011 5
b11001001 (
b11001001 8
b11001001 >
1+
#234000
0+
#234500
b11001010 (
b11001010 8
b11001010 >
b1100 5
1+
#235000
0+
#235500
b1101 5
b11001011 (
b11001011 8
b11001011 >
1+
#236000
0+
#236500
b11001100 (
b11001100 8
b11001100 >
b1110 5
1+
#237000
0+
#237500
b1111 5
b11001101 (
b11001101 8
b11001101 >
1+
#238000
0+
#238500
b1010 7
b11001110 (
b11001110 8
b11001110 >
b10000 5
1+
#239000
0+
#239500
b1011 7
b101 <
b0 5
b1010 6
1!
b1100 #
b1100 ;
b1100 B
b11001111 (
b11001111 8
b11001111 >
1+
#240000
0+
#240500
0$
0!
b1011 6
1+
#241000
0+
#241500
b1 5
1+
#242000
0+
#242500
b0 &
b0 9
b0 ?
b11010000 (
b11010000 8
b11010000 >
1$
b10 5
1+
#243000
0+
#243500
b11 5
b11010001 (
b11010001 8
b11010001 >
1+
#244000
0+
#244500
b11010010 (
b11010010 8
b11010010 >
b100 5
1+
#245000
0+
#245500
b101 5
b11010011 (
b11010011 8
b11010011 >
1+
#246000
0+
#246500
b11010100 (
b11010100 8
b11010100 >
b110 5
1+
#247000
0+
#247500
b111 5
b11010101 (
b11010101 8
b11010101 >
1+
#248000
0+
#248500
b11010110 (
b11010110 8
b11010110 >
b1000 5
1+
#249000
0+
#249500
b1001 5
b11010111 (
b11010111 8
b11010111 >
1+
#250000
0+
#250500
b0x &
b0x 9
b0x ?
b11011000 (
b11011000 8
b11011000 >
b1010 5
1+
#251000
0+
#251500
b1011 5
b11011001 (
b11011001 8
b11011001 >
1+
#252000
0+
#252500
b11011010 (
b11011010 8
b11011010 >
b1100 5
1+
#253000
0+
#253500
b1101 5
b11011011 (
b11011011 8
b11011011 >
1+
#254000
0+
#254500
b11011100 (
b11011100 8
b11011100 >
b1110 5
1+
#255000
0+
#255500
b1111 5
b11011101 (
b11011101 8
b11011101 >
1+
#256000
0+
#256500
b1010 7
b11011110 (
b11011110 8
b11011110 >
b10000 5
1+
#257000
0+
#257500
b1011 7
b110 <
b0 5
b1010 6
1!
b1101 #
b1101 ;
b1101 B
b11011111 (
b11011111 8
b11011111 >
1+
#258000
0+
#258500
0$
0!
b1011 6
1+
#259000
0+
#259500
b1 5
1+
#260000
0+
#260500
b0 &
b0 9
b0 ?
b11100000 (
b11100000 8
b11100000 >
1$
b10 5
1+
#261000
0+
#261500
b11 5
b11100001 (
b11100001 8
b11100001 >
1+
#262000
0+
#262500
b11100010 (
b11100010 8
b11100010 >
b100 5
1+
#263000
0+
#263500
b101 5
b11100011 (
b11100011 8
b11100011 >
1+
#264000
0+
#264500
b11100100 (
b11100100 8
b11100100 >
b110 5
1+
#265000
0+
#265500
b111 5
b11100101 (
b11100101 8
b11100101 >
1+
#266000
0+
#266500
b11100110 (
b11100110 8
b11100110 >
b1000 5
1+
#267000
0+
#267500
b1001 5
b11100111 (
b11100111 8
b11100111 >
1+
#268000
0+
#268500
b0x &
b0x 9
b0x ?
b11101000 (
b11101000 8
b11101000 >
b1010 5
1+
#269000
0+
#269500
b1011 5
b11101001 (
b11101001 8
b11101001 >
1+
#270000
0+
#270500
b11101010 (
b11101010 8
b11101010 >
b1100 5
1+
#271000
0+
#271500
b1101 5
b11101011 (
b11101011 8
b11101011 >
1+
#272000
0+
#272500
b11101100 (
b11101100 8
b11101100 >
b1110 5
1+
#273000
0+
#273500
b1111 5
b11101101 (
b11101101 8
b11101101 >
1+
#274000
0+
#274500
b1010 7
b11101110 (
b11101110 8
b11101110 >
b10000 5
1+
#275000
0+
#275500
b1011 7
b111 <
b0 5
b1010 6
1!
b1110 #
b1110 ;
b1110 B
b11101111 (
b11101111 8
b11101111 >
1+
#276000
0+
#276500
0$
0!
b1011 6
1+
#277000
0+
#277500
b1 5
1+
#278000
0+
#278500
b0 &
b0 9
b0 ?
b11110000 (
b11110000 8
b11110000 >
1$
b10 5
1+
#279000
0+
#279500
b11 5
b11110001 (
b11110001 8
b11110001 >
1+
#280000
0+
#280500
b11110010 (
b11110010 8
b11110010 >
b100 5
1+
#281000
0+
#281500
b101 5
b11110011 (
b11110011 8
b11110011 >
1+
#282000
0+
#282500
b11110100 (
b11110100 8
b11110100 >
b110 5
1+
#283000
0+
#283500
b111 5
b11110101 (
b11110101 8
b11110101 >
1+
#284000
0+
#284500
b11110110 (
b11110110 8
b11110110 >
b1000 5
1+
#285000
0+
#285500
b1001 5
b11110111 (
b11110111 8
b11110111 >
1+
#286000
0+
#286500
b0x &
b0x 9
b0x ?
b11111000 (
b11111000 8
b11111000 >
b1010 5
1+
#287000
0+
#287500
b1011 5
b11111001 (
b11111001 8
b11111001 >
1+
#288000
0+
#288500
b11111010 (
b11111010 8
b11111010 >
b1100 5
1+
#289000
0+
#289500
b1101 5
b11111011 (
b11111011 8
b11111011 >
1+
#290000
0+
#290500
b11111100 (
b11111100 8
b11111100 >
b1110 5
1+
#291000
0+
#291500
b1111 5
b11111101 (
b11111101 8
b11111101 >
1+
#292000
0+
#292500
b1010 7
b11111110 (
b11111110 8
b11111110 >
b10000 5
1+
#293000
0+
#293500
b1011 7
b0 <
b10 =
b0 5
b1010 6
1!
b1111 #
b1111 ;
b1111 B
b11111111 (
b11111111 8
b11111111 >
1+
#294000
0+
#294500
0$
0!
b1011 6
1+
#295000
0+
#295500
b1 5
1+
#296000
0+
#296500
b0 &
b0 9
b0 ?
b100000000 (
b100000000 8
b100000000 >
1$
b10 5
1+
#297000
0+
#297500
b11 5
b100000001 (
b100000001 8
b100000001 >
1+
#298000
0+
#298500
b100000010 (
b100000010 8
b100000010 >
b100 5
1+
#299000
0+
#299500
b101 5
b100000011 (
b100000011 8
b100000011 >
1+
#300000
0+
#300500
b100000100 (
b100000100 8
b100000100 >
b110 5
1+
#301000
0+
#301500
b111 5
b100000101 (
b100000101 8
b100000101 >
1+
#302000
0+
#302500
b100000110 (
b100000110 8
b100000110 >
b1000 5
1+
#303000
0+
#303500
b1001 5
b100000111 (
b100000111 8
b100000111 >
1+
#304000
0+
#304500
b0x &
b0x 9
b0x ?
b100001000 (
b100001000 8
b100001000 >
b1010 5
1+
#305000
0+
#305500
b1011 5
b100001001 (
b100001001 8
b100001001 >
1+
#306000
0+
#306500
b100001010 (
b100001010 8
b100001010 >
b1100 5
1+
#307000
0+
#307500
b1101 5
b100001011 (
b100001011 8
b100001011 >
1+
#308000
0+
#308500
b100001100 (
b100001100 8
b100001100 >
b1110 5
1+
#309000
0+
#309500
b1111 5
b100001101 (
b100001101 8
b100001101 >
1+
#310000
0+
#310500
b1010 7
b100001110 (
b100001110 8
b100001110 >
b10000 5
1+
#311000
0+
#311500
b1011 7
b1 <
b0 5
b1010 6
1!
b10000 #
b10000 ;
b10000 B
b100001111 (
b100001111 8
b100001111 >
1+
#312000
0+
#312500
0$
0!
b1011 6
1+
#313000
0+
#313500
b1 5
1+
#314000
0+
#314500
b0 &
b0 9
b0 ?
b100010000 (
b100010000 8
b100010000 >
1$
b10 5
1+
#315000
0+
#315500
b11 5
b100010001 (
b100010001 8
b100010001 >
1+
#316000
0+
#316500
b100010010 (
b100010010 8
b100010010 >
b100 5
1+
#317000
0+
#317500
b101 5
b100010011 (
b100010011 8
b100010011 >
1+
#318000
0+
#318500
b100010100 (
b100010100 8
b100010100 >
b110 5
1+
#319000
0+
#319500
b111 5
b100010101 (
b100010101 8
b100010101 >
1+
#320000
0+
#320500
b100010110 (
b100010110 8
b100010110 >
b1000 5
1+
#321000
0+
#321500
b1001 5
b100010111 (
b100010111 8
b100010111 >
1+
#322000
0+
#322500
b0x &
b0x 9
b0x ?
b100011000 (
b100011000 8
b100011000 >
b1010 5
1+
#323000
0+
#323500
b1011 5
b100011001 (
b100011001 8
b100011001 >
1+
#324000
0+
#324500
b100011010 (
b100011010 8
b100011010 >
b1100 5
1+
#325000
0+
#325500
b1101 5
b100011011 (
b100011011 8
b100011011 >
1+
#326000
0+
#326500
b100011100 (
b100011100 8
b100011100 >
b1110 5
1+
#327000
0+
#327500
b1111 5
b100011101 (
b100011101 8
b100011101 >
1+
#328000
0+
